[Intro]

Bm   A/C#    D      A      G


[Verse 1]

Bm              A/C#       D                       A                       G
You call me out upon the waters         The great unknown where feet may fail
Bm                  A/C#     D                     A                    G
And there I find You in the mystery    In oceans deep   My faith will stand


[Chorus]

G           D              A     G            D             A                    G
And I will call upon Your name   And keep my eyes above the waves   When oceans rise    
              D              A                G         (A)     Bm
My soul will rest in your embrace  For I am Yours  and You are mine


[Interlude]

Bm A/C#  D  A  Em/G


[Verse 2]

Bm                     A/C#    D                       A                  G
Your grace abounds in deepest waters   Your sovereign hand   Will be my guide
Bm                      A/C#      D                       A                       G
Where feet may fail and fear surrounds me   You've never failed and you won't start now

Chorus:
G           D              A     G            D             A                    G
So I will call upon Your name   And keep my eyes above the waves   When oceans rise    
              D              A                G         (A)     Bm
My soul will rest in your embrace  For I am Yours  and You are mine


[Instrumental]
  
Bm A/C#  D  A  Em/G                
Bm A/C#  D  A  Em/G 
               
Bm  G  D  A Bm  G  D  A


[Bridge]

Bm                        G
Spirit lead me where my trust is without borders     
        D                           A
Let me walk upon the waters  Wherever You would call me
Bm                      G
Take me deeper than my feet could ever wander
         D                                   A
And my faith will be made stronger   In the presence of my Saviour      x3

G                         D
Spirit lead me where my trust is without borders     
         A                          Em
Let me walk upon the waters  Wherever You would call me
G                       D
Take me deeper than my feet could ever wander
          A                                   Em
And my faith will be made stronger   In the presence of my Saviour

Bm              A/C#      D
Spirit lead me where my trust is without borders     
        A                          Em
Let me walk upon the waters  Wherever You would call me
Bm              A/C#     D
Take me deeper than my feet could ever wander
         A                                   Em
And my faith will be made stronger   In the presence of my Saviour            x2


[Instrumental]

Bm  A/C#  D  A  Em                
Bm  A/C#  D  A  Em   


[Chorus]

G       D              A 
I will call upon Your Name    
G        D              A    
Keep my eyes above the waves
G            D              A 
My soul will rest in Your embrace
       G       A      Bm  A/C#  D  A  G  Bm  A/C#  D  
I am Yours and You are mine